{
   "brightnessViewDescription": {
      "message": "Отрегулируйте яркость, перетащив ползунок ниже."
   },
   "brightnessViewTitle": {
      "message": "Яркость"
   },
   "colorViewDescription": {
      "message": "Выберите цвет с веб-сайта и измените его как хочется"
   },
   "colorViewOriginalColor": {
      "description": "original color",
      "message": "Оригинальный"
   },
   "colorViewReplacedColor": {
      "description": " replaced color",
      "message": "Заменены"
   },
   "colorViewTitle": {
      "message": "Выбор цвета"
   },
   "contrastViewDescription": {
      "message": "Отрегулируйте контрастность, перетащив ползунок ниже."
   },
   "contrastViewTitle": {
      "message": "Контрастность"
   },
   "controlsPanelAllWebsites": {
      "message": "всем веб-сайтам"
   },
   "controlsPanelButtonApply": {
      "message": "Применить"
   },
   "controlsPanelButtonApplyTo": {
      "description": "Apply to all websites",
      "message": "Применить к"
   },
   "controlsPanelButtonCancel": {
      "message": "Отмена"
   },
   "controlsPanelButtonDefault": {
      "message": "Значения по умолчанию"
   },
   "controlsPanelButtonRestoreTo": {
      "description": "Restore defaults for all websites",
      "message": "Восстановить значения по умолчанию"
   },
   "controlsPanelCurrentWebsite": {
      "message": "текущему веб-сайту"
   },
   "controlsPanelForAllWebsites": {
      "message": "для всех веб-сайтов"
   },
   "controlsPanelForCurrentWebsite": {
      "message": "текущего веб-сайта"
   },
   "dimViewDescription": {
      "message": "Отрегулируйте уровень тусклость веб-сайтов."
   },
   "dimViewTitle": {
      "message": "Уровень тусклости"
   },
   "extDescription": {
      "description": "Night Eye - do not translate Night Eye - this is app name",
      "message": "Night Eye позволяет использовать ночной режим на любом веб-сайте, используя новый алгоритм, который анализирует и преобразует все цвета вместо их инвертирования."
   },
   "extDisabledStatus": {
      "description": "Night Eye - do not translate Night Eye - this is app name",
      "message": "Night Eye выключен"
   },
   "extName": {
      "description": "Night Eye - do not translate Night Eye - this is app name",
      "message": "Night Eye - Темный режим на любом веб-сайте"
   },
   "extToggleButton": {
      "message": "Переключение между темным и нормальным режимами для вкладки"
   },
   "extTurnOnButton": {
      "message": "Включить"
   },
   "filterModeNameDark": {
      "message": "Темный"
   },
   "filterModeNameFiltered": {
      "message": "Подгоняемый"
   },
   "filterModeNameNormal": {
      "message": "Обычный"
   },
   "firstRunViewFeature1": {
      "message": "Влияет на скорость загрузки на некоторых страницах"
   },
   "firstRunViewFeature2": {
      "message": "Пользуйтесь 3 месяцами бесплатно\u003Cbr>После этого всего $$9/год"
   },
   "firstRunViewFeature3": {
      "message": "Информация о просмотре не собирается"
   },
   "firstRunViewFeature4": {
      "message": "Обратитесь в нашу службу поддержки с помощью встроенного чата"
   },
   "firstRunViewTitle": {
      "message": "Быстрый старт"
   },
   "helpViewDefaultModeDescription": {
      "message": "Выберите режим по умолчанию, который будет выполняться при открытии новых веб-сайтов"
   },
   "helpViewDefaultModeTitle": {
      "message": "Режим по умолчанию"
   },
   "helpViewHelpButton": {
      "message": "Раздел справки"
   },
   "helpViewShortcutDescription": {
      "message": "Узнайте, как назначить собственный ярлык"
   },
   "helpViewShortcutTitle": {
      "message": "Ярлык включения / выключения"
   },
   "helpViewUninstallDescription": {
      "message": "Найдите Night Eye в списке расширений и нажмите «Удалить»."
   },
   "helpViewUninstallTitle": {
      "message": "Удалить"
   },
   "imageViewDescription": {
      "description": "Night Eye - do not translate Night Eye - this is app name",
      "message": "Night Eye обрабатывает изображения, делая их темнее. Эта функция требует больше вычислительных ресурсов и может замедлить работу вашего компьютера."
   },
   "imageViewTitle": {
      "message": "Изображения"
   },
   "labelBlueLight": {
      "message": "синий свет"
   },
   "labelBrightness": {
      "message": "яркость"
   },
   "labelColors": {
      "message": "цвета"
   },
   "labelContinue": {
      "message": "Продолжить"
   },
   "labelContrast": {
      "message": "контрастность"
   },
   "labelCurrent": {
      "description": "Current website",
      "message": "Текущий"
   },
   "labelDim": {
      "message": "уровень тусклости"
   },
   "labelExperimentalFeature": {
      "message": "Экспериментальное свойство"
   },
   "labelImages": {
      "message": "изображения"
   },
   "labelPleaseWait": {
      "message": "Пожалуйста, подождите"
   },
   "labelSaturation": {
      "message": "насыщенность"
   },
   "labelWebsite": {
      "description": "Current website",
      "message": "веб-сайт"
   },
   "labelWebsiteStatusDark": {
      "message": "Темная версия"
   },
   "labelWebsiteStatusFiltered": {
      "message": "Пользовательская версия"
   },
   "labelWebsiteStatusNormal": {
      "message": "Обычная версия"
   },
   "labelWebsiteStatusNotSupported": {
      "message": "Не поддерживается"
   },
   "messageWebsiteNotSupported": {
      "message": "Этот сайт не поддерживается"
   },
   "okButton": {
      "message": "OK"
   },
   "refreshButton": {
      "description": "Refresh current page - this is button",
      "message": "Обновление"
   },
   "refreshViewDescription": {
      "message": "Вы должны обновить текущую страницу, чтобы применить последние настройки"
   },
   "refreshViewTitle": {
      "message": "Перезагрузите страницу"
   },
   "saturationViewDescription": {
      "message": "Отрегулируйте насыщенность, перетащив ползунок ниже."
   },
   "saturationViewTitle": {
      "message": "Насыщенность"
   },
   "supportViewInfo1": {
      "message": "Мы здесь, чтобы помочь, если у вас есть какие-либо вопросы или проблемы с Night Eye."
   },
   "supportViewInfo2": {
      "message": "Чтобы использовать нашу систему поддержки, предоставьте правильную контактную информацию."
   },
   "supportViewInfo3": {
      "message": "Отправьте нам сообщения только на английском языке."
   },
   "supportViewInputEmail": {
      "message": "Адрес"
   },
   "supportViewInputName": {
      "message": "Имя"
   },
   "switchLabelOff": {
      "description": "Switch is Off",
      "message": "Выключен"
   },
   "switchLabelOn": {
      "description": "Switch is On",
      "message": "Включен"
   },
   "temperatureViewDescription": {
      "message": "Отрегулируйте синий свет, перетащив ползунок ниже."
   },
   "temperatureViewOption1": {
      "message": "С синим"
   },
   "temperatureViewOption2": {
      "message": "Без синего"
   },
   "temperatureViewTitle": {
      "message": "Синий свет"
   }
}
